sim_wave.vcd
$version Generated by VerilatedVcd $end
$timescale 1ps $end
 $scope module TOP $end
  $var wire 1 0" clock $end
  $var wire 1 1" reset $end
  $var wire 32 2" io_debugPC [31:0] $end
  $var wire 32 3" io_debugInst [31:0] $end
  $var wire 32 4" io_debugin1 [31:0] $end
  $var wire 32 5" io_debugin2 [31:0] $end
  $var wire 32 6" io_debugout1 [31:0] $end
  $var wire 32 7" io_debugmemaddr [31:0] $end
  $var wire 32 8" io_debugmemdata [31:0] $end
  $var wire 1 9" io_inst_done $end
  $scope module core $end
   $var wire 1 0" clock $end
   $var wire 1 1" reset $end
   $var wire 32 2" io_debugPC [31:0] $end
   $var wire 32 3" io_debugInst [31:0] $end
   $var wire 32 4" io_debugin1 [31:0] $end
   $var wire 32 5" io_debugin2 [31:0] $end
   $var wire 32 6" io_debugout1 [31:0] $end
   $var wire 32 7" io_debugmemaddr [31:0] $end
   $var wire 32 8" io_debugmemdata [31:0] $end
   $var wire 1 9" io_inst_done $end
   $var wire 1 # validReg_7 $end
   $var wire 1 $ validReg_6 $end
   $var wire 1 % validReg_4 $end
   $var wire 1 & validReg_3 $end
   $var wire 1 ' validReg_2 $end
   $var wire 1 ( validReg_1 $end
   $var wire 1 ) validReg $end
   $var wire 32 * dataReg_inst [31:0] $end
   $var wire 32 + dataReg_pc [31:0] $end
   $var wire 1 , producerFire $end
   $var wire 32 - dataReg_1_addr [31:0] $end
   $var wire 1 . producerFire_1 $end
   $var wire 32 / dataReg_2_rdata [31:0] $end
   $var wire 1 0 producerFire_2 $end
   $var wire 32 1 dataReg_3_rs1_data [31:0] $end
   $var wire 32 2 dataReg_3_rs2_data [31:0] $end
   $var wire 5 3 dataReg_3_rd_addr [4:0] $end
   $var wire 1 4 dataReg_3_rd_en $end
   $var wire 5 5 dataReg_3_opcode [4:0] $end
   $var wire 64 6 dataReg_3_imm [63:0] $end
   $var wire 32 8 dataReg_3_pc [31:0] $end
   $var wire 1 9 dataReg_3_rs2_en $end
   $var wire 1 : dataReg_3_unsign_en $end
   $var wire 1 ; dataReg_3_csr_en $end
   $var wire 1 < dataReg_3_lsu_en $end
   $var wire 1 = dataReg_3_mw_en $end
   $var wire 3 > dataReg_3_mlen [2:0] $end
   $var wire 1 ? dataReg_3_branch_en $end
   $var wire 1 @ dataReg_3_jump_en $end
   $var wire 1 A dataReg_3_jalr_en $end
   $var wire 1 B producerFire_3 $end
   $var wire 1 C dataReg_4_rd_en $end
   $var wire 5 D dataReg_4_rd_addr [4:0] $end
   $var wire 32 E dataReg_4_rd_data [31:0] $end
   $var wire 1 F dataReg_4_mem_wen $end
   $var wire 32 G dataReg_4_mem_addr [31:0] $end
   $var wire 32 H dataReg_4_mem_wdata [31:0] $end
   $var wire 3 I dataReg_4_mem_len [2:0] $end
   $var wire 1 J producerFire_4 $end
   $var wire 1 K validReg_5 $end
   $var wire 1 L dataReg_5_rd_en $end
   $var wire 5 M dataReg_5_rd_addr [4:0] $end
   $var wire 32 N dataReg_5_rd_data [31:0] $end
   $var wire 1 O producerFire_5 $end
   $var wire 32 P dataReg_6_addr [31:0] $end
   $var wire 32 Q dataReg_6_wdata [31:0] $end
   $var wire 1 R dataReg_6_wen $end
   $var wire 3 S dataReg_6_len [2:0] $end
   $var wire 1 T producerFire_6 $end
   $var wire 32 U dataReg_7_rdata [31:0] $end
   $var wire 1 V producerFire_7 $end
   $var wire 1 W validReg_8 $end
   $var wire 1 X producerFire_8 $end
   $var wire 1 Y consumerFire_8 $end
   $var wire 1 B consumerFire $end
   $var wire 1 Z consumerFire_1 $end
   $var wire 1 [ consumerFire_2 $end
   $var wire 1 J consumerFire_3 $end
   $var wire 1 \ consumerFire_4 $end
   $var wire 1 ] consumerFire_6 $end
   $var wire 1 ^ consumerFire_7 $end
   $scope module EXU $end
    $var wire 1 _ io_out_ready $end
    $var wire 1 & io_out_valid $end
    $var wire 1 4 io_out_bits_rd_en $end
    $var wire 5 3 io_out_bits_rd_addr [4:0] $end
    $var wire 32 6" io_out_bits_rd_data [31:0] $end
    $var wire 1 = io_out_bits_mem_wen $end
    $var wire 32 ` io_out_bits_mem_addr [31:0] $end
    $var wire 32 2 io_out_bits_mem_wdata [31:0] $end
    $var wire 3 > io_out_bits_mem_len [2:0] $end
    $var wire 1 _ io_in_ready $end
    $var wire 1 & io_in_valid $end
    $var wire 32 1 io_in_bits_rs1_data [31:0] $end
    $var wire 32 2 io_in_bits_rs2_data [31:0] $end
    $var wire 5 3 io_in_bits_rd_addr [4:0] $end
    $var wire 1 4 io_in_bits_rd_en $end
    $var wire 5 5 io_in_bits_opcode [4:0] $end
    $var wire 64 6 io_in_bits_imm [63:0] $end
    $var wire 32 8 io_in_bits_pc [31:0] $end
    $var wire 1 9 io_in_bits_rs2_en $end
    $var wire 1 : io_in_bits_unsign_en $end
    $var wire 1 = io_in_bits_mw_en $end
    $var wire 3 > io_in_bits_mlen [2:0] $end
    $var wire 1 ? io_in_bits_branch_en $end
    $var wire 1 @ io_in_bits_jump_en $end
    $var wire 1 A io_in_bits_jalr_en $end
    $scope module alu $end
     $var wire 32 a io_in1 [31:0] $end
     $var wire 32 b io_in2 [31:0] $end
     $var wire 32 ` io_out [31:0] $end
     $var wire 5 5 io_opcode [4:0] $end
     $var wire 1 : io_unsign_en $end
     $var wire 63 c sll_res [62:0] $end
    $upscope $end
   $upscope $end
   $scope module Fsram $end
    $var wire 1 0" clock $end
    $var wire 1 1" reset $end
    $var wire 1 e io_req_ready $end
    $var wire 1 ( io_req_valid $end
    $var wire 32 - io_req_bits_addr [31:0] $end
    $var wire 32 :" io_req_bits_wdata [31:0] $end
    $var wire 1 ;" io_req_bits_wen $end
    $var wire 3 <" io_req_bits_len [2:0] $end
    $var wire 1 f io_resp_ready $end
    $var wire 1 g io_resp_valid $end
    $var wire 32 h io_resp_bits_rdata [31:0] $end
    $var wire 1 e io_req_ready_0 $end
    $var wire 1 g resp_valid_reg $end
    $var wire 64 i rdata_reg [63:0] $end
    $scope module readDPI $end
     $var wire 32 - addr [31:0] $end
     $var wire 4 =" len [3:0] $end
     $var wire 64 k rdata [63:0] $end
     $var wire 64 k rdata_reg [63:0] $end
    $upscope $end
    $scope module writeDPI $end
     $var wire 1 0" clock $end
     $var wire 32 - addr [31:0] $end
     $var wire 4 =" len [3:0] $end
     $var wire 64 >" wdata [63:0] $end
     $var wire 1 ;" wen $end
     $scope module unnamedblk1 $end
      $var wire 32 @" temp_data [31:0] $end
     $upscope $end
     $scope module unnamedblk2 $end
      $var wire 32 A" temp_data [31:0] $end
     $upscope $end
    $upscope $end
   $upscope $end
   $scope module IDU $end
    $var wire 1 m io_in_ready $end
    $var wire 1 ) io_in_valid $end
    $var wire 32 * io_in_bits_inst [31:0] $end
    $var wire 32 + io_in_bits_pc [31:0] $end
    $var wire 1 m io_out_ready $end
    $var wire 1 ) io_out_valid $end
    $var wire 32 4" io_out_bits_rs1_data [31:0] $end
    $var wire 32 5" io_out_bits_rs2_data [31:0] $end
    $var wire 5 n io_out_bits_rd_addr [4:0] $end
    $var wire 1 o io_out_bits_rd_en $end
    $var wire 5 p io_out_bits_opcode [4:0] $end
    $var wire 64 q io_out_bits_imm [63:0] $end
    $var wire 32 + io_out_bits_pc [31:0] $end
    $var wire 1 s io_out_bits_rs2_en $end
    $var wire 1 t io_out_bits_unsign_en $end
    $var wire 1 ;" io_out_bits_csr_en $end
    $var wire 1 u io_out_bits_lsu_en $end
    $var wire 1 v io_out_bits_mw_en $end
    $var wire 3 w io_out_bits_mlen [2:0] $end
    $var wire 1 x io_out_bits_branch_en $end
    $var wire 1 y io_out_bits_jump_en $end
    $var wire 1 z io_out_bits_jalr_en $end
    $var wire 5 { io_d2r_rs1_addr [4:0] $end
    $var wire 5 | io_d2r_rs2_addr [4:0] $end
    $var wire 64 } io_r2d_rs1_data [63:0] $end
    $var wire 64 !! io_r2d_rs2_data [63:0] $end
    $var wire 30 #! decodedBundle_invInputs [29:0] $end
    $var wire 64 q casez_tmp [63:0] $end
   $upscope $end
   $scope module IFU $end
    $var wire 1 0" clock $end
    $var wire 1 1" reset $end
    $var wire 1 $! io_in_ready $end
    $var wire 1 W io_in_valid $end
    $var wire 1 %! io_out_ready $end
    $var wire 1 &! io_out_valid $end
    $var wire 32 '! io_out_bits_inst [31:0] $end
    $var wire 32 (! io_out_bits_pc [31:0] $end
    $var wire 1 )! io_sram_req_ready $end
    $var wire 1 *! io_sram_req_valid $end
    $var wire 32 +! io_sram_req_bits_addr [31:0] $end
    $var wire 1 ,! io_sram_resp_ready $end
    $var wire 1 ' io_sram_resp_valid $end
    $var wire 32 / io_sram_resp_bits_rdata [31:0] $end
    $var wire 1 -! lsm_upstream_ready $end
    $var wire 32 .! pc [31:0] $end
    $var wire 1 /! is_first_inst $end
    $var wire 2 0! state [1:0] $end
    $var wire 32 '! out_reg_inst [31:0] $end
    $var wire 32 (! out_reg_pc [31:0] $end
    $var wire 1 ,! sram_req_sent $end
    $var wire 1 &! io_out_valid_0 $end
    $var wire 1 [ busy_done $end
   $upscope $end
   $scope module LSU $end
    $var wire 1 0" clock $end
    $var wire 1 1" reset $end
    $var wire 1 1! io_in_ready $end
    $var wire 1 % io_in_valid $end
    $var wire 1 C io_in_bits_rd_en $end
    $var wire 5 D io_in_bits_rd_addr [4:0] $end
    $var wire 32 E io_in_bits_rd_data [31:0] $end
    $var wire 1 F io_in_bits_mem_wen $end
    $var wire 32 G io_in_bits_mem_addr [31:0] $end
    $var wire 32 H io_in_bits_mem_wdata [31:0] $end
    $var wire 3 I io_in_bits_mem_len [2:0] $end
    $var wire 1 2! io_out_valid $end
    $var wire 1 3! io_out_bits_rd_en $end
    $var wire 5 4! io_out_bits_rd_addr [4:0] $end
    $var wire 32 5! io_out_bits_rd_data [31:0] $end
    $var wire 1 6! io_sram_req_ready $end
    $var wire 1 7! io_sram_req_valid $end
    $var wire 32 G io_sram_req_bits_addr [31:0] $end
    $var wire 32 H io_sram_req_bits_wdata [31:0] $end
    $var wire 1 F io_sram_req_bits_wen $end
    $var wire 3 I io_sram_req_bits_len [2:0] $end
    $var wire 1 8! io_sram_resp_ready $end
    $var wire 1 # io_sram_resp_valid $end
    $var wire 32 U io_sram_resp_bits_rdata [31:0] $end
    $var wire 1 8! state $end
    $var wire 1 3! l2w_reg_rd_en $end
    $var wire 5 4! l2w_reg_rd_addr [4:0] $end
    $var wire 32 5! l2w_reg_rd_data [31:0] $end
    $var wire 1 9! is_load $end
   $upscope $end
   $scope module Lsram $end
    $var wire 1 0" clock $end
    $var wire 1 1" reset $end
    $var wire 1 :! io_req_ready $end
    $var wire 1 $ io_req_valid $end
    $var wire 32 P io_req_bits_addr [31:0] $end
    $var wire 32 Q io_req_bits_wdata [31:0] $end
    $var wire 1 R io_req_bits_wen $end
    $var wire 3 S io_req_bits_len [2:0] $end
    $var wire 1 ;! io_resp_ready $end
    $var wire 1 <! io_resp_valid $end
    $var wire 32 =! io_resp_bits_rdata [31:0] $end
    $var wire 1 :! io_req_ready_0 $end
    $var wire 1 <! resp_valid_reg $end
    $var wire 64 >! rdata_reg [63:0] $end
    $scope module readDPI $end
     $var wire 32 P addr [31:0] $end
     $var wire 4 @! len [3:0] $end
     $var wire 64 A! rdata [63:0] $end
     $var wire 64 A! rdata_reg [63:0] $end
    $upscope $end
    $scope module writeDPI $end
     $var wire 1 0" clock $end
     $var wire 32 P addr [31:0] $end
     $var wire 4 @! len [3:0] $end
     $var wire 64 C! wdata [63:0] $end
     $var wire 1 E! wen $end
     $scope module unnamedblk1 $end
      $var wire 32 F! temp_data [31:0] $end
     $upscope $end
     $scope module unnamedblk2 $end
      $var wire 32 G! temp_data [31:0] $end
     $upscope $end
    $upscope $end
   $upscope $end
   $scope module RF $end
    $var wire 1 0" clock $end
    $var wire 1 1" reset $end
    $var wire 5 { io_d2r_rs1_addr [4:0] $end
    $var wire 5 | io_d2r_rs2_addr [4:0] $end
    $var wire 5 M io_w2r_addr [4:0] $end
    $var wire 64 H! io_w2r_data [63:0] $end
    $var wire 1 9" io_w2r_en $end
    $var wire 64 } io_r2e_rs1_data [63:0] $end
    $var wire 64 !! io_r2e_rs2_data [63:0] $end
    $var wire 64 J! rf_0 [63:0] $end
    $var wire 64 L! rf_1 [63:0] $end
    $var wire 64 N! rf_2 [63:0] $end
    $var wire 64 P! rf_3 [63:0] $end
    $var wire 64 R! rf_4 [63:0] $end
    $var wire 64 T! rf_5 [63:0] $end
    $var wire 64 V! rf_6 [63:0] $end
    $var wire 64 X! rf_7 [63:0] $end
    $var wire 64 Z! rf_8 [63:0] $end
    $var wire 64 \! rf_9 [63:0] $end
    $var wire 64 ^! rf_10 [63:0] $end
    $var wire 64 `! rf_11 [63:0] $end
    $var wire 64 b! rf_12 [63:0] $end
    $var wire 64 d! rf_13 [63:0] $end
    $var wire 64 f! rf_14 [63:0] $end
    $var wire 64 h! rf_15 [63:0] $end
    $var wire 64 j! rf_16 [63:0] $end
    $var wire 64 l! rf_17 [63:0] $end
    $var wire 64 n! rf_18 [63:0] $end
    $var wire 64 p! rf_19 [63:0] $end
    $var wire 64 r! rf_20 [63:0] $end
    $var wire 64 t! rf_21 [63:0] $end
    $var wire 64 v! rf_22 [63:0] $end
    $var wire 64 x! rf_23 [63:0] $end
    $var wire 64 z! rf_24 [63:0] $end
    $var wire 64 |! rf_25 [63:0] $end
    $var wire 64 ~! rf_26 [63:0] $end
    $var wire 64 "" rf_27 [63:0] $end
    $var wire 64 $" rf_28 [63:0] $end
    $var wire 64 &" rf_29 [63:0] $end
    $var wire 64 (" rf_30 [63:0] $end
    $var wire 64 *" rf_31 [63:0] $end
    $var wire 64 ," casez_tmp [63:0] $end
    $var wire 64 ." casez_tmp_0 [63:0] $end
   $upscope $end
   $scope module WBU $end
    $var wire 1 K io_in_valid $end
    $var wire 1 L io_in_bits_rd_en $end
    $var wire 5 M io_in_bits_rd_addr [4:0] $end
    $var wire 32 N io_in_bits_rd_data [31:0] $end
    $var wire 5 M io_out_addr [4:0] $end
    $var wire 64 H! io_out_data [63:0] $end
    $var wire 1 9" io_out_en $end
    $var wire 1 K io_w2f_valid $end
    $var wire 1 9" io_w2f_bits_inst_done $end
    $var wire 1 9" io_out_en_0 $end
   $upscope $end
  $upscope $end
 $upscope $end
$enddefinitions $end


#0
0#
0$
0%
0&
0'
0(
0)
b00000000000000000000000000000000 *
b00000000000000000000000000000000 +
0,
b00000000000000000000000000000000 -
1.
b00000000000000000000000000000000 /
00
b00000000000000000000000000000000 1
b00000000000000000000000000000000 2
b00000 3
04
b00000 5
b0000000000000000000000000000000000000000000000000000000000000000 6
b00000000000000000000000000000000 8
09
0:
0;
0<
0=
b000 >
0?
0@
0A
0B
0C
b00000 D
b00000000000000000000000000000000 E
0F
b00000000000000000000000000000000 G
b00000000000000000000000000000000 H
b000 I
0J
0K
0L
b00000 M
b00000000000000000000000000000000 N
0O
b00000000000000000000000000000000 P
b00000000000000000000000000000000 Q
0R
b000 S
0T
b00000000000000000000000000000000 U
0V
0W
0X
0Y
0Z
0[
0\
0]
0^
1_
b00000000000000000000000000000000 `
b00000000000000000000000000000000 a
b00000000000000000000000000000000 b
b000000000000000000000000000000000000000000000000000000000000000 c
1e
1f
0g
b00000000000000000000000000000000 h
b0000000000000000000000000000000000000000000000000000000000000000 i
b0000000000000000000000000000000000000000000000000000000000000000 k
1m
b00000 n
0o
b00000 p
b0000000000000000000000000000000000000000000000000000000000000000 q
0s
0t
0u
0v
b000 w
0x
0y
0z
b00000 {
b00000 |
b0000000000000000000000000000000000000000000000000000000000000000 }
b0000000000000000000000000000000000000000000000000000000000000000 !!
b111111111111111111111111111111 #!
1$!
1%!
0&!
b00000000000000000000000000000000 '!
b00000000000000000000000000000000 (!
1)!
1*!
b00000000000000000000000000000100 +!
0,!
1-!
b00000000000000000000000000000000 .!
0/!
b00 0!
11!
02!
03!
b00000 4!
b00000000000000000000000000000000 5!
16!
07!
08!
09!
1:!
1;!
0<!
b00000000000000000000000000000000 =!
b0000000000000000000000000000000000000000000000000000000000000000 >!
b0000 @!
b0000000000000000000000000000000000000000000000000000000000000000 A!
b0000000000000000000000000000000000000000000000000000000000000000 C!
0E!
b00000000000000000000000000000000 F!
b00000000000000000000000000000000 G!
b0000000000000000000000000000000000000000000000000000000000000000 H!
b0000000000000000000000000000000000000000000000000000000000000000 J!
b0000000000000000000000000000000000000000000000000000000000000000 L!
b0000000000000000000000000000000000000000000000000000000000000000 N!
b0000000000000000000000000000000000000000000000000000000000000000 P!
b0000000000000000000000000000000000000000000000000000000000000000 R!
b0000000000000000000000000000000000000000000000000000000000000000 T!
b0000000000000000000000000000000000000000000000000000000000000000 V!
b0000000000000000000000000000000000000000000000000000000000000000 X!
b0000000000000000000000000000000000000000000000000000000000000000 Z!
b0000000000000000000000000000000000000000000000000000000000000000 \!
b0000000000000000000000000000000000000000000000000000000000000000 ^!
b0000000000000000000000000000000000000000000000000000000000000000 `!
b0000000000000000000000000000000000000000000000000000000000000000 b!
b0000000000000000000000000000000000000000000000000000000000000000 d!
b0000000000000000000000000000000000000000000000000000000000000000 f!
b0000000000000000000000000000000000000000000000000000000000000000 h!
b0000000000000000000000000000000000000000000000000000000000000000 j!
b0000000000000000000000000000000000000000000000000000000000000000 l!
b0000000000000000000000000000000000000000000000000000000000000000 n!
b0000000000000000000000000000000000000000000000000000000000000000 p!
b0000000000000000000000000000000000000000000000000000000000000000 r!
b0000000000000000000000000000000000000000000000000000000000000000 t!
b0000000000000000000000000000000000000000000000000000000000000000 v!
b0000000000000000000000000000000000000000000000000000000000000000 x!
b0000000000000000000000000000000000000000000000000000000000000000 z!
b0000000000000000000000000000000000000000000000000000000000000000 |!
b0000000000000000000000000000000000000000000000000000000000000000 ~!
b0000000000000000000000000000000000000000000000000000000000000000 ""
b0000000000000000000000000000000000000000000000000000000000000000 $"
b0000000000000000000000000000000000000000000000000000000000000000 &"
b0000000000000000000000000000000000000000000000000000000000000000 ("
b0000000000000000000000000000000000000000000000000000000000000000 *"
b0000000000000000000000000000000000000000000000000000000000000000 ,"
b0000000000000000000000000000000000000000000000000000000000000000 ."
10"
11"
b00000000000000000000000000000000 2"
b00000000000000000000000000000000 3"
b00000000000000000000000000000000 4"
b00000000000000000000000000000000 5"
b00000000000000000000000000000000 6"
b00000000000000000000000000000000 7"
b00000000000000000000000000000000 8"
09"
b00000000000000000000000000000000 :"
0;"
b100 <"
b0100 ="
b0000000000000000000000000000000000000000000000000000000000000000 >"
b00000000000000000000000000000000 @"
b00000000000000000000000000000000 A"
#1
00"
#2
b00000000000000000000000000000100 -
0$!
b10000000000000000000000000000000 +!
b01111111111111111111111111111100 .!
1/!
10"
#3
00"
#4
b10000000000000000000000000000000 -
b0000000000000000000000000000000000000000000000000000000001101111 k
10"
#5
00"
#6
10"
#7
00"
#8
10"
#9
00"
#10
10"
#11
00"
#12
10"
#13
00"
#14
10"
#15
00"
#16
10"
#17
00"
#18
10"
#19
00"
#20
1(
0.
1Z
0)!
0*!
b10000000000000000000000000000100 +!
1,!
0-!
b10000000000000000000000000000000 .!
0/!
b01 0!
10"
01"
#21
00"
#22
0(
10
0Z
1g
b00000000000000000000000001101111 h
b0000000000000000000000000000000000000000000000000000000001101111 i
1)!
10"
#23
00"
#24
1'
b00000000000000000000000001101111 /
00
1[
0f
0g
10"
#25
00"
#26
0'
1,
0[
1f
1&!
b00000000000000000000000001101111 '!
b10000000000000000000000000000000 (!
b10 0!
10"
b10000000000000000000000000000000 2"
b00000000000000000000000001101111 3"
#27
00"
#28
1)
b00000000000000000000000001101111 *
b10000000000000000000000000000000 +
0,
1.
1B
1o
b00001 p
1y
b111111111111111111111111100100 #!
1$!
0%!
0&!
1*!
0,!
1-!
b00 0!
10"
#29
00"
#30
1&
1(
0)
b10000000000000000000000000000100 -
0.
14
b00001 5
b10000000000000000000000000000000 8
1@
0B
1J
1Z
b10000000000000000000000000000000 `
b10000000000000000000000000000000 a
b000000000000000000000000000000010000000000000000000000000000000 c
b0000000000000000000000000000000010000111111111111111000100110111 k
0m
1%!
0)!
0*!
b10000000000000000000000000001000 +!
1,!
b10000000000000000000000000000100 .!
10"
b10000000000000000000000000000100 6"
#31
00"
#32
1%
0&
0(
10
1C
b10000000000000000000000000000100 E
b10000000000000000000000000000000 G
0J
1T
0Z
1\
0_
1g
b10000111111111111111000100110111 h
b0000000000000000000000000000000010000111111111111111000100110111 i
1m
1)!
17!
19!
10"
b10000000000000000000000000000000 7"
#33
00"
#34
1$
0%
1'
b10000111111111111111000100110111 /
00
b10000000000000000000000000000000 P
0T
1[
0\
1]
1_
0f
0g
01!
13!
b10000000000000000000000000000100 5!
06!
07!
18!
10"
#35
00"
#36
0$
0'
1V
0[
0]
1f
16!
1<!
10"
#37
00"
#38
1#
1O
0V
1^
12!
0;!
0<!
10"
#39
00"
#40
0#
1K
1L
b10000000000000000000000000000100 N
0O
1X
0^
11!
02!
b00000000000000000000000000000000 5!
08!
1;!
b0000000000000000000000000000000010000000000000000000000000000100 H!
10"
19"
#41
00"
#42
0K
1W
0X
1Y
10"
09"
#43
00"
#44
0W
0Y
0$!
0-!
b01 0!
10"
